stm32f0xx_hal_tim.c:4629:13:TIM_OC1_SetConfig	16	static
stm32f0xx_hal_tim.c:4779:13:TIM_OC3_SetConfig	12	static
stm32f0xx_hal_tim.c:4853:13:TIM_OC4_SetConfig	16	static
stm32f0xx_hal_tim.c:272:13:HAL_TIM_Base_MspInit	0	static
stm32f0xx_hal_tim.c:287:13:HAL_TIM_Base_MspDeInit	0	static
stm32f0xx_hal_tim.c:245:19:HAL_TIM_Base_DeInit	16	static
stm32f0xx_hal_tim.c:303:19:HAL_TIM_Base_Start	0	static
stm32f0xx_hal_tim.c:326:19:HAL_TIM_Base_Stop	0	static
stm32f0xx_hal_tim.c:349:19:HAL_TIM_Base_Start_IT	0	static
stm32f0xx_hal_tim.c:369:19:HAL_TIM_Base_Stop_IT	0	static
stm32f0xx_hal_tim.c:390:19:HAL_TIM_Base_Start_DMA	16	static
stm32f0xx_hal_tim.c:434:19:HAL_TIM_Base_Stop_DMA	0	static
stm32f0xx_hal_tim.c:550:13:HAL_TIM_OC_MspInit	0	static
stm32f0xx_hal_tim.c:565:13:HAL_TIM_OC_MspDeInit	0	static
stm32f0xx_hal_tim.c:523:19:HAL_TIM_OC_DeInit	16	static
stm32f0xx_hal_tim.c:1057:13:HAL_TIM_PWM_MspInit	0	static
stm32f0xx_hal_tim.c:1072:13:HAL_TIM_PWM_MspDeInit	0	static
stm32f0xx_hal_tim.c:1030:19:HAL_TIM_PWM_DeInit	16	static
stm32f0xx_hal_tim.c:1567:13:HAL_TIM_IC_MspInit	0	static
stm32f0xx_hal_tim.c:1582:13:HAL_TIM_IC_MspDeInit	0	static
stm32f0xx_hal_tim.c:1540:19:HAL_TIM_IC_DeInit	16	static
stm32f0xx_hal_tim.c:2050:13:HAL_TIM_OnePulse_MspInit	0	static
stm32f0xx_hal_tim.c:2065:13:HAL_TIM_OnePulse_MspDeInit	0	static
stm32f0xx_hal_tim.c:2023:19:HAL_TIM_OnePulse_DeInit	16	static
stm32f0xx_hal_tim.c:2084:19:HAL_TIM_OnePulse_Start	0	static
stm32f0xx_hal_tim.c:2117:19:HAL_TIM_OnePulse_Stop	0	static
stm32f0xx_hal_tim.c:2150:19:HAL_TIM_OnePulse_Start_IT	0	static
stm32f0xx_hal_tim.c:2189:19:HAL_TIM_OnePulse_Stop_IT	0	static
stm32f0xx_hal_tim.c:2369:13:HAL_TIM_Encoder_MspInit	0	static
stm32f0xx_hal_tim.c:2384:13:HAL_TIM_Encoder_MspDeInit	0	static
stm32f0xx_hal_tim.c:2342:19:HAL_TIM_Encoder_DeInit	16	static
stm32f0xx_hal_tim.c:2404:19:HAL_TIM_Encoder_Start	0	static
stm32f0xx_hal_tim.c:2446:19:HAL_TIM_Encoder_Stop	0	static
stm32f0xx_hal_tim.c:2490:19:HAL_TIM_Encoder_Start_IT	8	static
stm32f0xx_hal_tim.c:2538:19:HAL_TIM_Encoder_Stop_IT	8	static
stm32f0xx_hal_tim.c:2592:19:HAL_TIM_Encoder_Start_DMA	24	static
stm32f0xx_hal_tim.c:2709:19:HAL_TIM_Encoder_Stop_DMA	8	static
stm32f0xx_hal_tim.c:3335:19:HAL_TIM_DMABurst_WriteStart	32	static
stm32f0xx_hal_tim.c:3558:19:HAL_TIM_DMABurst_ReadStart	32	static
stm32f0xx_hal_tim.c:3690:19:HAL_TIM_DMABurst_ReadStop	16	static
stm32f0xx_hal_tim.c:3466:19:HAL_TIM_DMABurst_WriteStop	8	static
stm32f0xx_hal_tim.c:3762:19:HAL_TIM_GenerateEvent	8	static
stm32f0xx_hal_tim.c:4101:19:HAL_TIM_ConfigTI1Input	0	static
stm32f0xx_hal_tim.c:4206:10:HAL_TIM_ReadCapturedValue	8	static
stm32f0xx_hal_tim.c:4293:13:HAL_TIM_PeriodElapsedCallback	0	static
stm32f0xx_hal_tim.c:4552:13:TIM_DMAPeriodElapsedCplt	8	static
stm32f0xx_hal_tim.c:4308:13:HAL_TIM_OC_DelayElapsedCallback	0	static
stm32f0xx_hal_tim.c:4322:13:HAL_TIM_IC_CaptureCallback	0	static
stm32f0xx_hal_tim.c:4519:6:TIM_DMACaptureCplt	8	static
stm32f0xx_hal_tim.c:4337:13:HAL_TIM_PWM_PulseFinishedCallback	0	static
stm32f0xx_hal_tim.c:4487:6:TIM_DMADelayPulseCplt	8	static
stm32f0xx_hal_tim.c:4352:13:HAL_TIM_TriggerCallback	0	static
stm32f0xx_hal_tim.c:2771:6:HAL_TIM_IRQHandler	8	static
stm32f0xx_hal_tim.c:4566:13:TIM_DMATriggerCplt	8	static
stm32f0xx_hal_tim.c:4367:13:HAL_TIM_ErrorCallback	0	static
stm32f0xx_hal_tim.c:4473:6:TIM_DMAError	8	static
stm32f0xx_hal_tim.c:4401:22:HAL_TIM_Base_GetState	0	static
stm32f0xx_hal_tim.c:4411:22:HAL_TIM_OC_GetState	0	static
stm32f0xx_hal_tim.c:4421:22:HAL_TIM_PWM_GetState	0	static
stm32f0xx_hal_tim.c:4431:22:HAL_TIM_IC_GetState	0	static
stm32f0xx_hal_tim.c:4441:22:HAL_TIM_OnePulse_GetState	0	static
stm32f0xx_hal_tim.c:4451:22:HAL_TIM_Encoder_GetState	0	static
stm32f0xx_hal_tim.c:4581:6:TIM_Base_SetConfig	8	static
stm32f0xx_hal_tim.c:205:19:HAL_TIM_Base_Init	16	static
stm32f0xx_hal_tim.c:483:19:HAL_TIM_OC_Init	16	static
stm32f0xx_hal_tim.c:990:19:HAL_TIM_PWM_Init	16	static
stm32f0xx_hal_tim.c:1500:19:HAL_TIM_IC_Init	16	static
stm32f0xx_hal_tim.c:1976:19:HAL_TIM_OnePulse_Init	16	static
stm32f0xx_hal_tim.c:2249:19:HAL_TIM_Encoder_Init	24	static
stm32f0xx_hal_tim.c:4703:6:TIM_OC2_SetConfig	12	static
stm32f0xx_hal_tim.c:2934:19:HAL_TIM_OC_ConfigChannel	16	static
stm32f0xx_hal_tim.c:3099:19:HAL_TIM_PWM_ConfigChannel	24	static
stm32f0xx_hal_tim.c:5049:6:TIM_TI1_SetConfig	20	static
stm32f0xx_hal_tim.c:3003:19:HAL_TIM_IC_ConfigChannel	32	static
stm32f0xx_hal_tim.c:3199:19:HAL_TIM_OnePulse_ConfigChannel	56	static
stm32f0xx_hal_tim.c:5343:6:TIM_ETR_SetConfig	12	static
stm32f0xx_hal_tim.c:3799:26:HAL_TIM_ConfigOCrefClear	32	static
stm32f0xx_hal_tim.c:3927:19:HAL_TIM_ConfigClockSource	24	static
stm32f0xx_hal_tim.c:4905:13:TIM_SlaveTimer_SetConfig	16	static
stm32f0xx_hal_tim.c:4133:19:HAL_TIM_SlaveConfigSynchronization	24	static
stm32f0xx_hal_tim.c:4168:19:HAL_TIM_SlaveConfigSynchronization_IT	24	static
stm32f0xx_hal_tim.c:5373:6:TIM_CCxChannelCmd	8	static
stm32f0xx_hal_tim.c:618:19:HAL_TIM_OC_Stop	8	static
stm32f0xx_hal_tim.c:1093:19:HAL_TIM_PWM_Start	8	static
stm32f0xx_hal_tim.c:586:19:HAL_TIM_OC_Start	8	static
stm32f0xx_hal_tim.c:1125:19:HAL_TIM_PWM_Stop	8	static
stm32f0xx_hal_tim.c:1160:19:HAL_TIM_PWM_Start_IT	8	static
stm32f0xx_hal_tim.c:650:19:HAL_TIM_OC_Start_IT	8	static
stm32f0xx_hal_tim.c:1226:19:HAL_TIM_PWM_Stop_IT	8	static
stm32f0xx_hal_tim.c:716:19:HAL_TIM_OC_Stop_IT	8	static
stm32f0xx_hal_tim.c:1294:19:HAL_TIM_PWM_Start_DMA	16	static
stm32f0xx_hal_tim.c:784:19:HAL_TIM_OC_Start_DMA	8	static
stm32f0xx_hal_tim.c:1411:19:HAL_TIM_PWM_Stop_DMA	8	static
stm32f0xx_hal_tim.c:901:19:HAL_TIM_OC_Stop_DMA	8	static
stm32f0xx_hal_tim.c:1603:19:HAL_TIM_IC_Start	8	static
stm32f0xx_hal_tim.c:1629:19:HAL_TIM_IC_Stop	8	static
stm32f0xx_hal_tim.c:1655:19:HAL_TIM_IC_Start_IT	8	static
stm32f0xx_hal_tim.c:1714:19:HAL_TIM_IC_Stop_IT	8	static
stm32f0xx_hal_tim.c:1776:19:HAL_TIM_IC_Start_DMA	16	static
stm32f0xx_hal_tim.c:1889:19:HAL_TIM_IC_Stop_DMA	8	static
