stm32f0xx_hal_uart_ex.c:184:19:HAL_RS485Ex_Init	32	static
stm32f0xx_hal_uart_ex.c:259:19:HAL_LIN_Init	16	static
stm32f0xx_hal_uart_ex.c:355:13:HAL_UARTEx_WakeupCallback	0	static
stm32f0xx_hal_uart_ex.c:404:19:HAL_UARTEx_StopModeWakeUpSourceConfig	40	static
stm32f0xx_hal_uart_ex.c:460:19:HAL_UARTEx_EnableStopMode	8	static
stm32f0xx_hal_uart_ex.c:486:19:HAL_UARTEx_DisableStopMode	8	static
stm32f0xx_hal_uart_ex.c:521:19:HAL_MultiProcessorEx_AddressLength_Set	16	static
stm32f0xx_hal_uart_ex.c:554:19:HAL_LIN_SendBreak	8	static
