EESchema Schematic File Version 2
LIBS:uLF-rescue
LIBS:power
LIBS:device
LIBS:transistors
LIBS:conn
LIBS:linear
LIBS:regul
LIBS:74xx
LIBS:cmos4000
LIBS:adc-dac
LIBS:memory
LIBS:xilinx
LIBS:microcontrollers
LIBS:dsp
LIBS:microchip
LIBS:analog_switches
LIBS:motorola
LIBS:texas
LIBS:intel
LIBS:audio
LIBS:interface
LIBS:digital-audio
LIBS:philips
LIBS:display
LIBS:cypress
LIBS:siliconi
LIBS:opto
LIBS:atmel
LIBS:contrib
LIBS:valves
LIBS:warsztaty
LIBS:stm32
LIBS:scalaki
LIBS:uLF-cache
EELAYER 25 0
EELAYER END
$Descr A3 16535 11693
encoding utf-8
Sheet 1 1
Title ""
Date ""
Rev ""
Comp ""
Comment1 ""
Comment2 ""
Comment3 ""
Comment4 ""
$EndDescr
$Comp
L LD39200 U7
U 1 1 5837A628
P 7400 3800
F 0 "U7" H 7600 4000 60  0000 C CNN
F 1 "LD39200" H 7650 3350 60  0000 C CNN
F 2 "Housings_DFN_QFN:DFN-6-1EP_3x3mm_Pitch0.95mm" H 7100 3800 60  0001 C CNN
F 3 "" H 7100 3800 60  0000 C CNN
	1    7400 3800
	1    0    0    -1  
$EndComp
$Comp
L GP2S60 U1
U 1 1 5837B56F
P 2800 1700
F 0 "U1" H 2900 1900 50  0000 L CNN
F 1 "GP2S60" H 2700 1500 50  0000 L CNN
F 2 "warsztaty:EE-SY193" H 3000 1500 50  0001 L CIN
F 3 "" H 2800 1700 50  0000 L CNN
	1    2800 1700
	1    0    0    -1  
$EndComp
$Comp
L +3V3 #PWR01
U 1 1 58390859
P 5050 6200
F 0 "#PWR01" H 5050 6050 50  0001 C CNN
F 1 "+3V3" H 5050 6340 50  0000 C CNN
F 2 "" H 5050 6200 50  0000 C CNN
F 3 "" H 5050 6200 50  0000 C CNN
	1    5050 6200
	1    0    0    -1  
$EndComp
$Comp
L C C5
U 1 1 58390875
P 5050 6450
F 0 "C5" H 5075 6550 50  0000 L CNN
F 1 "100nF" H 5075 6350 50  0000 L CNN
F 2 "Capacitors_SMD:C_0402" H 5088 6300 50  0001 C CNN
F 3 "" H 5050 6450 50  0000 C CNN
	1    5050 6450
	1    0    0    -1  
$EndComp
$Comp
L GND #PWR02
U 1 1 583908FE
P 5350 6650
F 0 "#PWR02" H 5350 6400 50  0001 C CNN
F 1 "GND" H 5350 6500 50  0000 C CNN
F 2 "" H 5350 6650 50  0000 C CNN
F 3 "" H 5350 6650 50  0000 C CNN
	1    5350 6650
	1    0    0    -1  
$EndComp
$Comp
L C C7
U 1 1 58390955
P 7350 5600
F 0 "C7" H 7375 5700 50  0000 L CNN
F 1 "100nF" H 7350 5500 50  0000 L CNN
F 2 "Capacitors_SMD:C_0402" H 7388 5450 50  0001 C CNN
F 3 "" H 7350 5600 50  0000 C CNN
	1    7350 5600
	1    0    0    -1  
$EndComp
$Comp
L GND #PWR03
U 1 1 58390A25
P 7350 5800
F 0 "#PWR03" H 7350 5550 50  0001 C CNN
F 1 "GND" H 7350 5650 50  0000 C CNN
F 2 "" H 7350 5800 50  0000 C CNN
F 3 "" H 7350 5800 50  0000 C CNN
	1    7350 5800
	1    0    0    -1  
$EndComp
Wire Wire Line
	6550 5450 7650 5450
$Comp
L +3V3 #PWR04
U 1 1 58390A7B
P 7750 4950
F 0 "#PWR04" H 7750 4800 50  0001 C CNN
F 1 "+3V3" H 7750 5090 50  0000 C CNN
F 2 "" H 7750 4950 50  0000 C CNN
F 3 "" H 7750 4950 50  0000 C CNN
	1    7750 4950
	1    0    0    -1  
$EndComp
Connection ~ 6600 5450
$Comp
L CONN_01X02 P2
U 1 1 58390AB8
P 6800 5850
F 0 "P2" H 6800 6000 50  0000 C CNN
F 1 "L_MOTOR" V 6900 5850 50  0000 C CNN
F 2 "warsztaty:GS2a" H 6800 5850 50  0001 C CNN
F 3 "" H 6800 5850 50  0000 C CNN
	1    6800 5850
	1    0    0    -1  
$EndComp
$Comp
L CONN_01X02 P3
U 1 1 58390B36
P 6800 6300
F 0 "P3" H 6800 6450 50  0000 C CNN
F 1 "R_MOTOR" V 6900 6300 50  0000 C CNN
F 2 "warsztaty:GS2a" H 6800 6300 50  0001 C CNN
F 3 "" H 6800 6300 50  0000 C CNN
	1    6800 6300
	1    0    0    -1  
$EndComp
Text Label 5100 5450 0    60   ~ 0
AIN1
Text Label 5100 5550 0    60   ~ 0
AIN2
Text Label 5100 5650 0    60   ~ 0
BIN1
Text Label 5100 5750 0    60   ~ 0
BIN2
Wire Wire Line
	5100 5750 5350 5750
Wire Wire Line
	5100 5650 5350 5650
Wire Wire Line
	5100 5550 5350 5550
Wire Wire Line
	5100 5450 5350 5450
$Comp
L CP C6
U 1 1 58391215
P 6400 3950
F 0 "C6" H 6425 4050 50  0000 L CNN
F 1 "10uF" H 6425 3850 50  0000 L CNN
F 2 "Capacitors_Tantalum_SMD:TantalC_SizeA_EIA-3216_Reflow" H 6438 3800 50  0001 C CNN
F 3 "" H 6400 3950 50  0000 C CNN
	1    6400 3950
	1    0    0    -1  
$EndComp
NoConn ~ 6950 4000
Wire Wire Line
	6000 3750 6950 3750
$Comp
L VCC #PWR05
U 1 1 5839131E
P 6400 3700
F 0 "#PWR05" H 6400 3550 50  0001 C CNN
F 1 "VCC" H 6400 3850 50  0000 C CNN
F 2 "" H 6400 3700 50  0000 C CNN
F 3 "" H 6400 3700 50  0000 C CNN
	1    6400 3700
	1    0    0    -1  
$EndComp
Wire Wire Line
	6400 3700 6400 3800
Connection ~ 6400 3750
$Comp
L GND #PWR06
U 1 1 5839142B
P 7400 4400
F 0 "#PWR06" H 7400 4150 50  0001 C CNN
F 1 "GND" H 7400 4250 50  0000 C CNN
F 2 "" H 7400 4400 50  0000 C CNN
F 3 "" H 7400 4400 50  0000 C CNN
	1    7400 4400
	1    0    0    -1  
$EndComp
Wire Wire Line
	6400 4100 6400 4350
Wire Wire Line
	7400 4400 7400 4350
$Comp
L CP C8
U 1 1 58391711
P 8300 3900
F 0 "C8" H 8325 4000 50  0000 L CNN
F 1 "10uF" H 8325 3800 50  0000 L CNN
F 2 "Capacitors_Tantalum_SMD:TantalC_SizeA_EIA-3216_Reflow" H 8338 3750 50  0001 C CNN
F 3 "" H 8300 3900 50  0000 C CNN
	1    8300 3900
	1    0    0    -1  
$EndComp
Wire Wire Line
	7850 3850 7850 3750
Wire Wire Line
	7850 3750 8450 3750
Wire Wire Line
	8300 4350 8300 4050
Connection ~ 7400 4350
Wire Wire Line
	7850 4000 7950 4000
$Comp
L VCC #PWR07
U 1 1 5839182E
P 7950 4000
F 0 "#PWR07" H 7950 3850 50  0001 C CNN
F 1 "VCC" H 7950 4150 50  0000 C CNN
F 2 "" H 7950 4000 50  0000 C CNN
F 3 "" H 7950 4000 50  0000 C CNN
	1    7950 4000
	1    0    0    -1  
$EndComp
$Comp
L +3V3 #PWR08
U 1 1 5839198E
P 8300 3650
F 0 "#PWR08" H 8300 3500 50  0001 C CNN
F 1 "+3V3" H 8300 3790 50  0000 C CNN
F 2 "" H 8300 3650 50  0000 C CNN
F 3 "" H 8300 3650 50  0000 C CNN
	1    8300 3650
	1    0    0    -1  
$EndComp
Wire Wire Line
	8300 3750 8300 3650
$Comp
L R R15
U 1 1 58391BF2
P 8600 3750
F 0 "R15" V 8680 3750 50  0000 C CNN
F 1 "1k" V 8600 3750 50  0000 C CNN
F 2 "Resistors_SMD:R_0402" V 8530 3750 50  0001 C CNN
F 3 "" H 8600 3750 50  0000 C CNN
	1    8600 3750
	0    1    1    0   
$EndComp
$Comp
L LED D3
U 1 1 58391C6D
P 8850 4000
F 0 "D3" H 8850 4100 50  0000 C CNN
F 1 "V_LED" H 8850 3900 50  0000 C CNN
F 2 "Diodes_SMD:D_0603" H 8850 4000 50  0001 C CNN
F 3 "" H 8850 4000 50  0000 C CNN
	1    8850 4000
	0    -1   -1   0   
$EndComp
Connection ~ 8300 3750
Wire Wire Line
	8750 3750 8850 3750
Wire Wire Line
	8850 3750 8850 3800
Wire Wire Line
	8850 4350 8850 4200
Connection ~ 8300 4350
$Comp
L R R7
U 1 1 583921A2
P 3300 1600
F 0 "R7" V 3380 1600 50  0000 C CNN
F 1 "120" V 3300 1600 50  0000 C CNN
F 2 "Resistors_SMD:R_0402" V 3230 1600 50  0001 C CNN
F 3 "" H 3300 1600 50  0000 C CNN
	1    3300 1600
	0    1    1    0   
$EndComp
$Comp
L +3V3 #PWR09
U 1 1 5839235D
P 3450 1500
F 0 "#PWR09" H 3450 1350 50  0001 C CNN
F 1 "+3V3" H 3450 1640 50  0000 C CNN
F 2 "" H 3450 1500 50  0000 C CNN
F 3 "" H 3450 1500 50  0000 C CNN
	1    3450 1500
	1    0    0    -1  
$EndComp
Wire Wire Line
	3100 1600 3150 1600
Wire Wire Line
	3450 1600 3450 1500
$Comp
L GND #PWR010
U 1 1 58392514
P 3150 1800
F 0 "#PWR010" H 3150 1550 50  0001 C CNN
F 1 "GND" H 3150 1650 50  0000 C CNN
F 2 "" H 3150 1800 50  0000 C CNN
F 3 "" H 3150 1800 50  0000 C CNN
	1    3150 1800
	1    0    0    -1  
$EndComp
Wire Wire Line
	3100 1800 3150 1800
$Comp
L R R5
U 1 1 583925E9
P 2250 1400
F 0 "R5" V 2330 1400 50  0000 C CNN
F 1 "10K" V 2250 1400 50  0000 C CNN
F 2 "Resistors_SMD:R_0402" V 2180 1400 50  0001 C CNN
F 3 "" H 2250 1400 50  0000 C CNN
	1    2250 1400
	-1   0    0    1   
$EndComp
$Comp
L +3V3 #PWR011
U 1 1 58392663
P 2250 1200
F 0 "#PWR011" H 2250 1050 50  0001 C CNN
F 1 "+3V3" H 2250 1340 50  0000 C CNN
F 2 "" H 2250 1200 50  0000 C CNN
F 3 "" H 2250 1200 50  0000 C CNN
	1    2250 1200
	1    0    0    -1  
$EndComp
Wire Wire Line
	2250 1200 2250 1250
Wire Wire Line
	2250 1550 2250 1600
Wire Wire Line
	1950 1600 2500 1600
$Comp
L GND #PWR012
U 1 1 58392714
P 2450 1800
F 0 "#PWR012" H 2450 1550 50  0001 C CNN
F 1 "GND" H 2450 1650 50  0000 C CNN
F 2 "" H 2450 1800 50  0000 C CNN
F 3 "" H 2450 1800 50  0000 C CNN
	1    2450 1800
	1    0    0    -1  
$EndComp
Wire Wire Line
	2450 1800 2500 1800
Connection ~ 2250 1600
Text Label 3950 2650 0    60   ~ 0
CL1
$Comp
L GP2S60 U5
U 1 1 583929DB
P 4850 1700
F 0 "U5" H 4950 1900 50  0000 L CNN
F 1 "GP2S60" H 4750 1500 50  0000 L CNN
F 2 "warsztaty:EE-SY193" H 5050 1500 50  0001 L CIN
F 3 "" H 4850 1700 50  0000 L CNN
	1    4850 1700
	1    0    0    -1  
$EndComp
$Comp
L R R14
U 1 1 583929E1
P 5350 1600
F 0 "R14" V 5430 1600 50  0000 C CNN
F 1 "120" V 5350 1600 50  0000 C CNN
F 2 "Resistors_SMD:R_0402" V 5280 1600 50  0001 C CNN
F 3 "" H 5350 1600 50  0000 C CNN
	1    5350 1600
	0    1    1    0   
$EndComp
$Comp
L +3V3 #PWR013
U 1 1 583929E7
P 5500 1500
F 0 "#PWR013" H 5500 1350 50  0001 C CNN
F 1 "+3V3" H 5500 1640 50  0000 C CNN
F 2 "" H 5500 1500 50  0000 C CNN
F 3 "" H 5500 1500 50  0000 C CNN
	1    5500 1500
	1    0    0    -1  
$EndComp
Wire Wire Line
	5150 1600 5200 1600
Wire Wire Line
	5500 1600 5500 1500
$Comp
L GND #PWR014
U 1 1 583929EF
P 5200 1800
F 0 "#PWR014" H 5200 1550 50  0001 C CNN
F 1 "GND" H 5200 1650 50  0000 C CNN
F 2 "" H 5200 1800 50  0000 C CNN
F 3 "" H 5200 1800 50  0000 C CNN
	1    5200 1800
	1    0    0    -1  
$EndComp
Wire Wire Line
	5150 1800 5200 1800
$Comp
L R R12
U 1 1 583929F6
P 4300 1400
F 0 "R12" V 4380 1400 50  0000 C CNN
F 1 "10K" V 4300 1400 50  0000 C CNN
F 2 "Resistors_SMD:R_0402" V 4230 1400 50  0001 C CNN
F 3 "" H 4300 1400 50  0000 C CNN
	1    4300 1400
	-1   0    0    1   
$EndComp
$Comp
L +3V3 #PWR015
U 1 1 583929FC
P 4300 1200
F 0 "#PWR015" H 4300 1050 50  0001 C CNN
F 1 "+3V3" H 4300 1340 50  0000 C CNN
F 2 "" H 4300 1200 50  0000 C CNN
F 3 "" H 4300 1200 50  0000 C CNN
	1    4300 1200
	1    0    0    -1  
$EndComp
Wire Wire Line
	4300 1200 4300 1250
Wire Wire Line
	4300 1550 4300 1600
Wire Wire Line
	4000 1600 4550 1600
$Comp
L GND #PWR016
U 1 1 58392A05
P 4500 1800
F 0 "#PWR016" H 4500 1550 50  0001 C CNN
F 1 "GND" H 4500 1650 50  0000 C CNN
F 2 "" H 4500 1800 50  0000 C CNN
F 3 "" H 4500 1800 50  0000 C CNN
	1    4500 1800
	1    0    0    -1  
$EndComp
Wire Wire Line
	4500 1800 4550 1800
Connection ~ 4300 1600
Text Label 2000 2650 0    60   ~ 0
CL2
$Comp
L GP2S60 U4
U 1 1 58392B17
P 4800 2750
F 0 "U4" H 4900 2950 50  0000 L CNN
F 1 "GP2S60" H 4700 2550 50  0000 L CNN
F 2 "warsztaty:EE-SY193" H 5000 2550 50  0001 L CIN
F 3 "" H 4800 2750 50  0000 L CNN
	1    4800 2750
	1    0    0    -1  
$EndComp
$Comp
L R R13
U 1 1 58392B1D
P 5300 2650
F 0 "R13" V 5380 2650 50  0000 C CNN
F 1 "120" V 5300 2650 50  0000 C CNN
F 2 "Resistors_SMD:R_0402" V 5230 2650 50  0001 C CNN
F 3 "" H 5300 2650 50  0000 C CNN
	1    5300 2650
	0    1    1    0   
$EndComp
$Comp
L +3V3 #PWR017
U 1 1 58392B23
P 5450 2550
F 0 "#PWR017" H 5450 2400 50  0001 C CNN
F 1 "+3V3" H 5450 2690 50  0000 C CNN
F 2 "" H 5450 2550 50  0000 C CNN
F 3 "" H 5450 2550 50  0000 C CNN
	1    5450 2550
	1    0    0    -1  
$EndComp
Wire Wire Line
	5100 2650 5150 2650
Wire Wire Line
	5450 2650 5450 2550
$Comp
L GND #PWR018
U 1 1 58392B2B
P 5150 2850
F 0 "#PWR018" H 5150 2600 50  0001 C CNN
F 1 "GND" H 5150 2700 50  0000 C CNN
F 2 "" H 5150 2850 50  0000 C CNN
F 3 "" H 5150 2850 50  0000 C CNN
	1    5150 2850
	1    0    0    -1  
$EndComp
Wire Wire Line
	5100 2850 5150 2850
$Comp
L R R11
U 1 1 58392B32
P 4250 2450
F 0 "R11" V 4330 2450 50  0000 C CNN
F 1 "10K" V 4250 2450 50  0000 C CNN
F 2 "Resistors_SMD:R_0402" V 4180 2450 50  0001 C CNN
F 3 "" H 4250 2450 50  0000 C CNN
	1    4250 2450
	-1   0    0    1   
$EndComp
$Comp
L +3V3 #PWR019
U 1 1 58392B38
P 4250 2250
F 0 "#PWR019" H 4250 2100 50  0001 C CNN
F 1 "+3V3" H 4250 2390 50  0000 C CNN
F 2 "" H 4250 2250 50  0000 C CNN
F 3 "" H 4250 2250 50  0000 C CNN
	1    4250 2250
	1    0    0    -1  
$EndComp
Wire Wire Line
	4250 2250 4250 2300
Wire Wire Line
	4250 2600 4250 2650
Wire Wire Line
	3950 2650 4500 2650
$Comp
L GND #PWR020
U 1 1 58392B41
P 4450 2850
F 0 "#PWR020" H 4450 2600 50  0001 C CNN
F 1 "GND" H 4450 2700 50  0000 C CNN
F 2 "" H 4450 2850 50  0000 C CNN
F 3 "" H 4450 2850 50  0000 C CNN
	1    4450 2850
	1    0    0    -1  
$EndComp
Wire Wire Line
	4450 2850 4500 2850
Connection ~ 4250 2650
Text Label 1950 1600 0    60   ~ 0
CL4
$Comp
L GP2S60 U2
U 1 1 58392E01
P 2850 2750
F 0 "U2" H 2950 2950 50  0000 L CNN
F 1 "GP2S60" H 2750 2550 50  0000 L CNN
F 2 "warsztaty:EE-SY193" H 3050 2550 50  0001 L CIN
F 3 "" H 2850 2750 50  0000 L CNN
	1    2850 2750
	1    0    0    -1  
$EndComp
$Comp
L R R8
U 1 1 58392E07
P 3350 2650
F 0 "R8" V 3430 2650 50  0000 C CNN
F 1 "120" V 3350 2650 50  0000 C CNN
F 2 "Resistors_SMD:R_0402" V 3280 2650 50  0001 C CNN
F 3 "" H 3350 2650 50  0000 C CNN
	1    3350 2650
	0    1    1    0   
$EndComp
$Comp
L +3V3 #PWR021
U 1 1 58392E0D
P 3500 2550
F 0 "#PWR021" H 3500 2400 50  0001 C CNN
F 1 "+3V3" H 3500 2690 50  0000 C CNN
F 2 "" H 3500 2550 50  0000 C CNN
F 3 "" H 3500 2550 50  0000 C CNN
	1    3500 2550
	1    0    0    -1  
$EndComp
Wire Wire Line
	3150 2650 3200 2650
Wire Wire Line
	3500 2650 3500 2550
$Comp
L GND #PWR022
U 1 1 58392E15
P 3200 2850
F 0 "#PWR022" H 3200 2600 50  0001 C CNN
F 1 "GND" H 3200 2700 50  0000 C CNN
F 2 "" H 3200 2850 50  0000 C CNN
F 3 "" H 3200 2850 50  0000 C CNN
	1    3200 2850
	1    0    0    -1  
$EndComp
Wire Wire Line
	3150 2850 3200 2850
$Comp
L R R6
U 1 1 58392E1C
P 2300 2450
F 0 "R6" V 2380 2450 50  0000 C CNN
F 1 "10K" V 2300 2450 50  0000 C CNN
F 2 "Resistors_SMD:R_0402" V 2230 2450 50  0001 C CNN
F 3 "" H 2300 2450 50  0000 C CNN
	1    2300 2450
	-1   0    0    1   
$EndComp
$Comp
L +3V3 #PWR023
U 1 1 58392E22
P 2300 2250
F 0 "#PWR023" H 2300 2100 50  0001 C CNN
F 1 "+3V3" H 2300 2390 50  0000 C CNN
F 2 "" H 2300 2250 50  0000 C CNN
F 3 "" H 2300 2250 50  0000 C CNN
	1    2300 2250
	1    0    0    -1  
$EndComp
Wire Wire Line
	2300 2250 2300 2300
Wire Wire Line
	2300 2600 2300 2650
Wire Wire Line
	2000 2650 2550 2650
$Comp
L GND #PWR024
U 1 1 58392E2B
P 2500 2850
F 0 "#PWR024" H 2500 2600 50  0001 C CNN
F 1 "GND" H 2500 2700 50  0000 C CNN
F 2 "" H 2500 2850 50  0000 C CNN
F 3 "" H 2500 2850 50  0000 C CNN
	1    2500 2850
	1    0    0    -1  
$EndComp
Wire Wire Line
	2500 2850 2550 2850
Connection ~ 2300 2650
Text Label 4000 1600 0    60   ~ 0
CL3
Wire Wire Line
	5600 7250 5300 7250
Text Label 5300 7250 0    60   ~ 0
RESET
$Comp
L SW_PUSH SW1
U 1 1 58393FB9
P 1700 7000
F 0 "SW1" H 1850 7110 50  0000 C CNN
F 1 "SW_PUSH" H 1700 6920 50  0000 C CNN
F 2 "Buttons_Switches_SMD:SW_SPST_EVQPE1" H 1700 7000 50  0001 C CNN
F 3 "" H 1700 7000 50  0000 C CNN
	1    1700 7000
	0    1    -1   0   
$EndComp
$Comp
L +3V3 #PWR025
U 1 1 583940F2
P 1700 6200
F 0 "#PWR025" H 1700 6050 50  0001 C CNN
F 1 "+3V3" H 1700 6340 50  0000 C CNN
F 2 "" H 1700 6200 50  0000 C CNN
F 3 "" H 1700 6200 50  0000 C CNN
	1    1700 6200
	-1   0    0    -1  
$EndComp
Wire Wire Line
	1700 6550 1700 6700
$Comp
L R R2
U 1 1 583945B5
P 1700 7550
F 0 "R2" V 1780 7550 50  0000 C CNN
F 1 "330" V 1700 7550 50  0000 C CNN
F 2 "Resistors_SMD:R_0402" V 1630 7550 50  0001 C CNN
F 3 "" H 1700 7550 50  0000 C CNN
	1    1700 7550
	1    0    0    1   
$EndComp
$Comp
L GND #PWR026
U 1 1 5839494D
P 1700 7750
F 0 "#PWR026" H 1700 7500 50  0001 C CNN
F 1 "GND" H 1700 7600 50  0000 C CNN
F 2 "" H 1700 7750 50  0000 C CNN
F 3 "" H 1700 7750 50  0000 C CNN
	1    1700 7750
	-1   0    0    -1  
$EndComp
Wire Wire Line
	1700 7700 1700 7750
Wire Wire Line
	2150 6650 1200 6650
Wire Wire Line
	1200 6650 1200 6750
Connection ~ 1700 6650
$Comp
L C C1
U 1 1 58394D1E
P 1200 6900
F 0 "C1" H 1225 7000 50  0000 L CNN
F 1 "100nF" H 1225 6800 50  0000 L CNN
F 2 "Capacitors_SMD:C_0402" H 1238 6750 50  0001 C CNN
F 3 "" H 1200 6900 50  0000 C CNN
	1    1200 6900
	-1   0    0    -1  
$EndComp
Wire Wire Line
	1200 7050 1200 7350
Wire Wire Line
	1700 7300 1700 7400
Wire Wire Line
	1200 7350 1700 7350
Connection ~ 1700 7350
$Comp
L R R1
U 1 1 58395290
P 1700 6400
F 0 "R1" V 1780 6400 50  0000 C CNN
F 1 "10k" V 1700 6400 50  0000 C CNN
F 2 "Resistors_SMD:R_0402" V 1630 6400 50  0001 C CNN
F 3 "" H 1700 6400 50  0000 C CNN
	1    1700 6400
	1    0    0    1   
$EndComp
Wire Wire Line
	1700 6200 1700 6250
Text Label 2150 6650 2    60   ~ 0
BUTTON1
$Comp
L C C4
U 1 1 58397B54
P 5050 9900
F 0 "C4" H 5075 10000 50  0000 L CNN
F 1 "100nF" H 5075 9800 50  0000 L CNN
F 2 "Capacitors_SMD:C_0402" H 5088 9750 50  0001 C CNN
F 3 "" H 5050 9900 50  0000 C CNN
	1    5050 9900
	-1   0    0    -1  
$EndComp
$Comp
L C C3
U 1 1 58397DA9
P 4750 9900
F 0 "C3" H 4775 10000 50  0000 L CNN
F 1 "100nF" H 4775 9800 50  0000 L CNN
F 2 "Capacitors_SMD:C_0402" H 4788 9750 50  0001 C CNN
F 3 "" H 4750 9900 50  0000 C CNN
	1    4750 9900
	-1   0    0    -1  
$EndComp
Connection ~ 5050 9750
Connection ~ 4750 9750
Connection ~ 4750 10050
Connection ~ 5050 10050
Wire Wire Line
	5600 9750 5600 9850
$Comp
L GND #PWR027
U 1 1 583982D9
P 4450 10150
F 0 "#PWR027" H 4450 9900 50  0001 C CNN
F 1 "GND" H 4450 10000 50  0000 C CNN
F 2 "" H 4450 10150 50  0000 C CNN
F 3 "" H 4450 10150 50  0000 C CNN
	1    4450 10150
	-1   0    0    -1  
$EndComp
$Comp
L L_Small L1
U 1 1 583983BD
P 5400 9950
F 0 "L1" V 5500 9950 50  0000 L CNN
F 1 "10uH" V 5350 9800 50  0000 L CNN
F 2 "Capacitors_SMD:C_0603" H 5400 9950 50  0001 C CNN
F 3 "" H 5400 9950 50  0000 C CNN
	1    5400 9950
	0    -1   -1   0   
$EndComp
Wire Wire Line
	5600 9950 5500 9950
Wire Wire Line
	5300 9950 5250 9950
Wire Wire Line
	5250 9950 5250 9750
Connection ~ 5250 9750
$Comp
L +3V3 #PWR028
U 1 1 5839875F
P 4450 9700
F 0 "#PWR028" H 4450 9550 50  0001 C CNN
F 1 "+3V3" H 4450 9840 50  0000 C CNN
F 2 "" H 4450 9700 50  0000 C CNN
F 3 "" H 4450 9700 50  0000 C CNN
	1    4450 9700
	-1   0    0    -1  
$EndComp
Connection ~ 4450 9750
Connection ~ 4450 10050
$Comp
L GND #PWR029
U 1 1 58398FAE
P 5200 9400
F 0 "#PWR029" H 5200 9150 50  0001 C CNN
F 1 "GND" H 5200 9250 50  0000 C CNN
F 2 "" H 5200 9400 50  0000 C CNN
F 3 "" H 5200 9400 50  0000 C CNN
	1    5200 9400
	0    1    -1   0   
$EndComp
Wire Wire Line
	5200 9400 5600 9400
Wire Wire Line
	6600 5100 6600 5450
Wire Wire Line
	6550 5800 6600 5800
Wire Wire Line
	6600 5900 6550 5900
Wire Wire Line
	6550 6250 6600 6250
Wire Wire Line
	6600 6350 6550 6350
Wire Wire Line
	5350 6300 5350 6100
Connection ~ 5350 6200
Text Label 5100 5850 0    60   ~ 0
APWM
Text Label 5100 5950 0    60   ~ 0
BPWM
Wire Wire Line
	5100 5950 5350 5950
Wire Wire Line
	5100 5850 5350 5850
Wire Wire Line
	5350 6400 5350 6650
Connection ~ 5350 6500
Wire Wire Line
	5050 6200 5050 6300
Wire Wire Line
	4750 6300 5350 6300
Wire Wire Line
	4750 6600 5350 6600
Connection ~ 5350 6600
$Comp
L LSM9DS1 U9
U 1 1 58397276
P 7850 2050
F 0 "U9" H 8250 2850 60  0000 C CNN
F 1 "LSM9DS1" H 8150 1100 60  0000 C CNN
F 2 "Housings_DFN_QFN1:LGA24" H 9550 -50 60  0001 C CNN
F 3 "" H 9550 -50 60  0000 C CNN
	1    7850 2050
	1    0    0    -1  
$EndComp
Wire Wire Line
	7150 2200 7150 2900
Connection ~ 7150 2300
Connection ~ 7150 2400
Connection ~ 7150 2500
Connection ~ 7150 2600
Connection ~ 7150 2700
Connection ~ 7150 2800
$Comp
L GND #PWR030
U 1 1 583978B0
P 7150 2900
F 0 "#PWR030" H 7150 2650 50  0001 C CNN
F 1 "GND" H 7150 2750 50  0000 C CNN
F 2 "" H 7150 2900 50  0000 C CNN
F 3 "" H 7150 2900 50  0000 C CNN
	1    7150 2900
	1    0    0    -1  
$EndComp
$Comp
L C_Small C13
U 1 1 58397D2E
P 7000 2100
F 0 "C13" H 7010 2170 50  0000 L CNN
F 1 "100nF" H 7010 2020 50  0000 L CNN
F 2 "Capacitors_SMD:C_0402" H 7000 2100 50  0001 C CNN
F 3 "" H 7000 2100 50  0000 C CNN
	1    7000 2100
	0    1    1    0   
$EndComp
Wire Wire Line
	7100 2100 7150 2100
Wire Wire Line
	6200 2100 6900 2100
Wire Wire Line
	6750 1950 6750 2800
Wire Wire Line
	6750 2800 7150 2800
$Comp
L C_Small C12
U 1 1 583983EC
P 7000 1950
F 0 "C12" H 7010 2020 50  0000 L CNN
F 1 "10nF" V 6950 1750 50  0000 L CNN
F 2 "Capacitors_SMD:C_0402" H 7000 1950 50  0001 C CNN
F 3 "" H 7000 1950 50  0000 C CNN
	1    7000 1950
	0    1    1    0   
$EndComp
Wire Wire Line
	7100 1950 7150 1950
Wire Wire Line
	6900 1950 6750 1950
Connection ~ 6750 2100
$Comp
L C_Small C10
U 1 1 5839866D
P 6500 1750
F 0 "C10" H 6510 1820 50  0000 L CNN
F 1 "100nF" H 6510 1670 50  0000 L CNN
F 2 "Capacitors_SMD:C_0402" H 6500 1750 50  0001 C CNN
F 3 "" H 6500 1750 50  0000 C CNN
	1    6500 1750
	-1   0    0    1   
$EndComp
$Comp
L CP_Small C11
U 1 1 583987E0
P 6650 1750
F 0 "C11" H 6660 1820 50  0000 L CNN
F 1 "10uF" H 6660 1670 50  0000 L CNN
F 2 "Capacitors_Tantalum_SMD:TantalC_SizeA_EIA-3216_Reflow" H 6650 1750 50  0001 C CNN
F 3 "" H 6650 1750 50  0000 C CNN
	1    6650 1750
	1    0    0    -1  
$EndComp
Wire Wire Line
	7150 1650 7150 1800
Wire Wire Line
	6500 1650 7150 1650
Connection ~ 6650 1650
Wire Wire Line
	6500 1850 6650 1850
Wire Wire Line
	6650 1850 6650 2100
$Comp
L +3V3 #PWR031
U 1 1 58398D85
P 6200 1350
F 0 "#PWR031" H 6200 1200 50  0001 C CNN
F 1 "+3V3" H 6200 1490 50  0000 C CNN
F 2 "" H 6200 1350 50  0000 C CNN
F 3 "" H 6200 1350 50  0000 C CNN
	1    6200 1350
	1    0    0    -1  
$EndComp
$Comp
L C_Small C9
U 1 1 58398FD0
P 6200 1750
F 0 "C9" H 6210 1820 50  0000 L CNN
F 1 "100nF" H 6210 1670 50  0000 L CNN
F 2 "Capacitors_SMD:C_0402" H 6200 1750 50  0001 C CNN
F 3 "" H 6200 1750 50  0000 C CNN
	1    6200 1750
	-1   0    0    1   
$EndComp
Wire Wire Line
	6200 1400 7150 1400
Wire Wire Line
	6200 1350 6200 1650
Wire Wire Line
	6200 1850 6200 2100
Connection ~ 6650 2100
Connection ~ 6200 1400
Text Label 9200 1400 0    60   ~ 0
SCL
Text Label 9200 1500 0    60   ~ 0
SDA
NoConn ~ 8550 1600
NoConn ~ 8550 1700
NoConn ~ 8550 2000
NoConn ~ 8550 2300
NoConn ~ 8550 2400
Wire Wire Line
	8550 1900 8550 1800
Wire Wire Line
	8550 1800 8800 1800
Wire Wire Line
	8800 1800 8800 1750
$Comp
L +3V3 #PWR032
U 1 1 58399E43
P 8800 1750
F 0 "#PWR032" H 8800 1600 50  0001 C CNN
F 1 "+3V3" H 8800 1890 50  0000 C CNN
F 2 "" H 8800 1750 50  0000 C CNN
F 3 "" H 8800 1750 50  0000 C CNN
	1    8800 1750
	1    0    0    -1  
$EndComp
Text Label 8550 2200 0    60   ~ 0
INT_A/G
Text Label 8550 2100 0    60   ~ 0
INT_M
Wire Wire Line
	7150 1400 7150 1500
Connection ~ 7150 1400
Text Label 5300 8100 0    60   ~ 0
CL1
Text Label 5300 7600 0    60   ~ 0
CL2
Text Label 5300 7500 0    60   ~ 0
CL3
Text Label 5300 7400 0    60   ~ 0
CL4
Wire Wire Line
	5300 8100 5600 8100
Wire Wire Line
	5300 7600 5600 7600
Wire Wire Line
	5300 7500 5600 7500
Wire Wire Line
	5300 7400 5600 7400
Wire Wire Line
	5300 7700 5600 7700
Text Label 5150 8800 0    60   ~ 0
VBAT
Text Label 5300 7800 0    60   ~ 0
INT_M
Text Label 5300 7700 0    60   ~ 0
INT_A/G
Wire Wire Line
	5300 7800 5600 7800
Wire Wire Line
	5300 7900 5600 7900
Wire Wire Line
	5150 8800 5600 8800
Text Label 5300 8700 0    60   ~ 0
BUTTON1
Text Label 5300 8200 0    60   ~ 0
TX
Text Label 5300 8300 0    60   ~ 0
RX
Wire Wire Line
	5300 8200 5600 8200
Wire Wire Line
	5300 8300 5600 8300
Text Label 5300 8400 0    60   ~ 0
SWDIO
Text Label 5300 8500 0    60   ~ 0
SWCLK
Wire Wire Line
	5300 8400 5600 8400
Wire Wire Line
	5300 8500 5600 8500
Wire Wire Line
	5300 9300 5600 9300
Text Label 5300 9100 0    60   ~ 0
APWM
Text Label 5300 9000 0    60   ~ 0
BPWM
Wire Wire Line
	5300 9200 5600 9200
Text Label 5300 7900 0    60   ~ 0
LED1
Text Label 5300 8000 0    60   ~ 0
LED2
Wire Wire Line
	5300 9100 5600 9100
Wire Wire Line
	5300 9000 5600 9000
Wire Wire Line
	5300 8900 5600 8900
Wire Wire Line
	5300 8600 5600 8600
$Comp
L LED D1
U 1 1 583A03FD
P 1600 8350
F 0 "D1" H 1600 8450 50  0000 C CNN
F 1 "LED1" H 1600 8250 50  0000 C CNN
F 2 "Diodes_SMD:D_0603" H 1600 8350 50  0001 C CNN
F 3 "" H 1600 8350 50  0000 C CNN
	1    1600 8350
	1    0    0    -1  
$EndComp
$Comp
L R R3
U 1 1 583A06A1
P 2100 8350
F 0 "R3" V 2180 8350 50  0000 C CNN
F 1 "1k" V 2100 8350 50  0000 C CNN
F 2 "Resistors_SMD:R_0402" V 2030 8350 50  0001 C CNN
F 3 "" H 2100 8350 50  0000 C CNN
	1    2100 8350
	0    1    1    0   
$EndComp
Text Label 2350 8350 0    60   ~ 0
LED1
Wire Wire Line
	2350 8350 2250 8350
Wire Wire Line
	1950 8350 1800 8350
Wire Wire Line
	1400 8350 1150 8350
Wire Wire Line
	1150 8350 1150 8400
$Comp
L GND #PWR033
U 1 1 583A13A8
P 1150 8400
F 0 "#PWR033" H 1150 8150 50  0001 C CNN
F 1 "GND" H 1150 8250 50  0000 C CNN
F 2 "" H 1150 8400 50  0000 C CNN
F 3 "" H 1150 8400 50  0000 C CNN
	1    1150 8400
	-1   0    0    -1  
$EndComp
$Comp
L LED D2
U 1 1 583A163F
P 1600 8700
F 0 "D2" H 1600 8800 50  0000 C CNN
F 1 "LED2" H 1600 8600 50  0000 C CNN
F 2 "Diodes_SMD:D_0603" H 1600 8700 50  0001 C CNN
F 3 "" H 1600 8700 50  0000 C CNN
	1    1600 8700
	1    0    0    -1  
$EndComp
$Comp
L R R4
U 1 1 583A1645
P 2100 8700
F 0 "R4" V 2180 8700 50  0000 C CNN
F 1 "1k" V 2100 8700 50  0000 C CNN
F 2 "Resistors_SMD:R_0402" V 2030 8700 50  0001 C CNN
F 3 "" H 2100 8700 50  0000 C CNN
	1    2100 8700
	0    1    1    0   
$EndComp
Text Label 2350 8700 0    60   ~ 0
LED2
Wire Wire Line
	2350 8700 2250 8700
Wire Wire Line
	1950 8700 1800 8700
Wire Wire Line
	1400 8700 1150 8700
Wire Wire Line
	1150 8700 1150 8750
$Comp
L GND #PWR034
U 1 1 583A1650
P 1150 8750
F 0 "#PWR034" H 1150 8500 50  0001 C CNN
F 1 "GND" H 1150 8600 50  0000 C CNN
F 2 "" H 1150 8750 50  0000 C CNN
F 3 "" H 1150 8750 50  0000 C CNN
	1    1150 8750
	-1   0    0    -1  
$EndComp
Text Label 5300 9500 0    60   ~ 0
SDA
Text Label 5300 9600 0    60   ~ 0
SCL
Wire Wire Line
	5300 9500 5600 9500
Wire Wire Line
	5300 9600 5600 9600
Wire Wire Line
	5300 8700 5600 8700
Wire Wire Line
	5300 8000 5600 8000
Text Label 5300 9300 0    60   ~ 0
AIN1
Text Label 5300 9200 0    60   ~ 0
AIN2
Text Label 5300 8600 0    60   ~ 0
BIN1
Text Label 5300 8900 0    60   ~ 0
BIN2
$Comp
L CONN_01X02 P1
U 1 1 583A4456
P 4350 3950
F 0 "P1" H 4350 4100 50  0000 C CNN
F 1 "PWR" V 4450 3950 50  0000 C CNN
F 2 "Pin_Headers:Pin_Header_Straight_1x02" H 4350 3950 50  0001 C CNN
F 3 "" H 4350 3950 50  0000 C CNN
	1    4350 3950
	-1   0    0    1   
$EndComp
Connection ~ 6400 4350
$Comp
L stm32f042 U8
U 1 1 5839038D
P 7400 7850
F 0 "U8" H 8100 8650 60  0000 C CNN
F 1 "stm32f042" H 7900 5400 60  0000 C CNN
F 2 "Housings_DFN_QFN1:UFQFPN28" H 9200 6100 60  0001 C CNN
F 3 "" H 9200 6100 60  0000 C CNN
	1    7400 7850
	1    0    0    -1  
$EndComp
$Comp
L USB_OTG P4
U 1 1 583A5E73
P 1850 9750
F 0 "P4" H 2175 9625 50  0000 C CNN
F 1 "programator" H 1850 9950 50  0000 C CNN
F 2 "warsztaty:USB_Micro-B_10103594-0001LF" V 1800 9650 50  0001 C CNN
F 3 "" V 1800 9650 50  0000 C CNN
	1    1850 9750
	0    1    1    0   
$EndComp
$Comp
L GND #PWR035
U 1 1 583A6F1D
P 1950 10200
F 0 "#PWR035" H 1950 9950 50  0001 C CNN
F 1 "GND" H 1950 10050 50  0000 C CNN
F 2 "" H 1950 10200 50  0000 C CNN
F 3 "" H 1950 10200 50  0000 C CNN
	1    1950 10200
	1    0    0    -1  
$EndComp
Wire Wire Line
	1550 9950 1550 10150
Wire Wire Line
	1550 10150 1950 10150
Wire Wire Line
	1950 10150 1950 10200
$Comp
L +3V3 #PWR036
U 1 1 583A7DE6
P 1500 9450
F 0 "#PWR036" H 1500 9300 50  0001 C CNN
F 1 "+3V3" H 1500 9590 50  0000 C CNN
F 2 "" H 1500 9450 50  0000 C CNN
F 3 "" H 1500 9450 50  0000 C CNN
	1    1500 9450
	1    0    0    -1  
$EndComp
Wire Wire Line
	1500 9450 1500 9550
Wire Wire Line
	1500 9550 1550 9550
Text Label 1200 9750 0    60   ~ 0
SWCLK
Text Label 1200 9650 0    60   ~ 0
SWDIO
Text Label 1200 9850 0    60   ~ 0
RESET
Wire Wire Line
	1200 9850 1550 9850
Wire Wire Line
	1200 9750 1550 9750
Wire Wire Line
	1200 9650 1550 9650
Text Label 4150 4850 0    60   ~ 0
RX
Text Label 4150 4950 0    60   ~ 0
TX
$Comp
L +3V3 #PWR037
U 1 1 583AD19F
P 2850 4750
F 0 "#PWR037" H 2850 4600 50  0001 C CNN
F 1 "+3V3" H 2850 4890 50  0000 C CNN
F 2 "" H 2850 4750 50  0000 C CNN
F 3 "" H 2850 4750 50  0000 C CNN
	1    2850 4750
	-1   0    0    -1  
$EndComp
$Comp
L GND #PWR038
U 1 1 583AD22E
P 2850 5200
F 0 "#PWR038" H 2850 4950 50  0001 C CNN
F 1 "GND" H 2850 5050 50  0000 C CNN
F 2 "" H 2850 5200 50  0000 C CNN
F 3 "" H 2850 5200 50  0000 C CNN
	1    2850 5200
	-1   0    0    -1  
$EndComp
Wire Wire Line
	2850 4750 2850 4850
Wire Wire Line
	2850 4850 2950 4850
Wire Wire Line
	2850 5200 2850 5150
Wire Wire Line
	2850 5150 2950 5150
$Comp
L DA14580 U3
U 1 1 583AE460
P 3550 5050
F 0 "U3" H 3800 5400 60  0000 C CNN
F 1 "DA14580" H 3450 5400 60  0000 C CNN
F 2 "warsztaty:DA14580" H 2800 4200 60  0001 C CNN
F 3 "" H 2800 4200 60  0000 C CNN
	1    3550 5050
	1    0    0    -1  
$EndComp
NoConn ~ 4150 5050
NoConn ~ 4150 5150
NoConn ~ 3700 5550
NoConn ~ 3600 5550
NoConn ~ 3500 5550
NoConn ~ 3400 5550
NoConn ~ 2950 5050
NoConn ~ 2950 4950
$Comp
L R R9
U 1 1 583B1ADE
P 3400 6500
F 0 "R9" V 3480 6500 50  0000 C CNN
F 1 "10K" V 3400 6500 50  0000 C CNN
F 2 "Resistors_SMD:R_0402" V 3330 6500 50  0001 C CNN
F 3 "" H 3400 6500 50  0000 C CNN
	1    3400 6500
	-1   0    0    1   
$EndComp
$Comp
L R R10
U 1 1 583B1E06
P 3400 7000
F 0 "R10" V 3480 7000 50  0000 C CNN
F 1 "22k" V 3400 7000 50  0000 C CNN
F 2 "Resistors_SMD:R_0402" V 3330 7000 50  0001 C CNN
F 3 "" H 3400 7000 50  0000 C CNN
	1    3400 7000
	-1   0    0    1   
$EndComp
Text Label 3650 6750 0    60   ~ 0
VBAT
$Comp
L VCC #PWR039
U 1 1 583B2108
P 3400 6300
F 0 "#PWR039" H 3400 6150 50  0001 C CNN
F 1 "VCC" H 3400 6450 50  0000 C CNN
F 2 "" H 3400 6300 50  0000 C CNN
F 3 "" H 3400 6300 50  0000 C CNN
	1    3400 6300
	1    0    0    -1  
$EndComp
Wire Wire Line
	3400 6300 3400 6350
Wire Wire Line
	3400 6850 3400 6650
Wire Wire Line
	3400 6750 3650 6750
Connection ~ 3400 6750
$Comp
L GND #PWR040
U 1 1 583B26BC
P 3400 7200
F 0 "#PWR040" H 3400 6950 50  0001 C CNN
F 1 "GND" H 3400 7050 50  0000 C CNN
F 2 "" H 3400 7200 50  0000 C CNN
F 3 "" H 3400 7200 50  0000 C CNN
	1    3400 7200
	-1   0    0    -1  
$EndComp
Wire Wire Line
	3400 7150 3400 7200
Wire Wire Line
	8550 1500 9200 1500
Wire Wire Line
	8550 1400 9200 1400
$Comp
L R R16
U 1 1 583B7BC8
P 8700 1150
F 0 "R16" V 8780 1150 50  0000 C CNN
F 1 "10k" V 8700 1150 50  0000 C CNN
F 2 "Resistors_SMD:R_0402" V 8630 1150 50  0001 C CNN
F 3 "" H 8700 1150 50  0000 C CNN
	1    8700 1150
	1    0    0    1   
$EndComp
$Comp
L R R17
U 1 1 583B81FE
P 9000 1150
F 0 "R17" V 9080 1150 50  0000 C CNN
F 1 "10k" V 9000 1150 50  0000 C CNN
F 2 "Resistors_SMD:R_0402" V 8930 1150 50  0001 C CNN
F 3 "" H 9000 1150 50  0000 C CNN
	1    9000 1150
	1    0    0    1   
$EndComp
$Comp
L +3V3 #PWR041
U 1 1 583B835E
P 8850 900
F 0 "#PWR041" H 8850 750 50  0001 C CNN
F 1 "+3V3" H 8850 1040 50  0000 C CNN
F 2 "" H 8850 900 50  0000 C CNN
F 3 "" H 8850 900 50  0000 C CNN
	1    8850 900 
	1    0    0    -1  
$EndComp
Wire Wire Line
	8700 1300 8700 1400
Connection ~ 8700 1400
Wire Wire Line
	9000 1300 9000 1500
Connection ~ 9000 1500
Wire Wire Line
	8700 1000 9000 1000
Wire Wire Line
	8850 1000 8850 900 
Connection ~ 8850 1000
$Comp
L SWITCH_INV SW2
U 1 1 583BB4D2
P 5500 3850
F 0 "SW2" H 5300 4000 50  0000 C CNN
F 1 "SWITCH_INV" H 5350 3700 50  0000 C CNN
F 2 "Pin_Headers:Pin_Header_Straight_1x03" H 5500 3850 50  0001 C CNN
F 3 "" H 5500 3850 50  0000 C CNN
	1    5500 3850
	1    0    0    -1  
$EndComp
Wire Wire Line
	4550 4000 4550 4350
Wire Wire Line
	6500 1650 6500 1400
Connection ~ 6500 1400
$Comp
L CP_Small C2
U 1 1 583C2E25
P 4450 9900
F 0 "C2" H 4460 9970 50  0000 L CNN
F 1 "10uF" H 4460 9820 50  0000 L CNN
F 2 "Capacitors_Tantalum_SMD:TantalC_SizeA_EIA-3216_Reflow" H 4450 9900 50  0001 C CNN
F 3 "" H 4450 9900 50  0000 C CNN
	1    4450 9900
	1    0    0    -1  
$EndComp
Wire Wire Line
	4450 9700 4450 9800
Wire Wire Line
	4450 10000 4450 10150
Wire Wire Line
	4450 10050 5600 10050
Wire Wire Line
	5600 9750 4450 9750
$Comp
L SWITCH_INV SW3
U 1 1 583CB217
P 7150 5100
F 0 "SW3" H 6950 5250 50  0000 C CNN
F 1 "MOTOR PWR" H 7000 4950 50  0000 C CNN
F 2 "warsztaty:3_pola" H 7150 5100 50  0001 C CNN
F 3 "" H 7150 5100 50  0000 C CNN
	1    7150 5100
	1    0    0    -1  
$EndComp
Wire Wire Line
	6650 5100 6600 5100
Wire Wire Line
	7650 5000 7750 5000
Wire Wire Line
	7750 5000 7750 4950
$Comp
L VCC #PWR042
U 1 1 583CBC59
P 8000 4950
F 0 "#PWR042" H 8000 4800 50  0001 C CNN
F 1 "VCC" H 8000 5100 50  0000 C CNN
F 2 "" H 8000 4950 50  0000 C CNN
F 3 "" H 8000 4950 50  0000 C CNN
	1    8000 4950
	1    0    0    -1  
$EndComp
Wire Wire Line
	7650 5200 8000 5200
Wire Wire Line
	8000 5200 8000 4950
$Comp
L TB6552/FNG U6
U 1 1 583CDDA1
P 5950 5900
F 0 "U6" H 6250 6550 60  0000 C CNN
F 1 "TB6552/FNG" H 6100 5150 60  0000 C CNN
F 2 "Housings_SSOP:TSSOP-16_4.4x5mm_Pitch0.65mm" H 5800 6000 60  0001 C CNN
F 3 "" H 5800 6000 60  0000 C CNN
	1    5950 5900
	1    0    0    -1  
$EndComp
$Comp
L R R18
U 1 1 583A7485
P 4800 3750
F 0 "R18" V 4880 3750 50  0000 C CNN
F 1 "1k" V 4800 3750 50  0000 C CNN
F 2 "Resistors_SMD:R_0402" V 4730 3750 50  0001 C CNN
F 3 "" H 4800 3750 50  0000 C CNN
	1    4800 3750
	-1   0    0    1   
$EndComp
Wire Wire Line
	4550 3900 4550 3500
Wire Wire Line
	4550 3500 5000 3500
Wire Wire Line
	5000 3500 5000 3850
Wire Wire Line
	4800 3500 4800 3600
Connection ~ 4800 3500
Wire Wire Line
	4950 4350 8850 4350
Wire Wire Line
	4800 4050 4800 3900
$Comp
L BSS138 Q1
U 1 1 583A9BB8
P 4750 4250
F 0 "Q1" H 4950 4325 50  0000 L CNN
F 1 "BSS138" H 4950 4250 50  0000 L CNN
F 2 "TO_SOT_Packages_SMD:SOT-23" H 4950 4175 50  0000 L CIN
F 3 "" H 4750 4250 50  0000 L CNN
	1    4750 4250
	0    -1   1    0   
$EndComp
$Comp
L R R21
U 1 1 5845A803
P 13050 2600
F 0 "R21" V 13130 2600 50  0000 C CNN
F 1 "120" V 13050 2600 50  0000 C CNN
F 2 "Resistors_SMD:R_0402" V 12980 2600 50  0001 C CNN
F 3 "" H 13050 2600 50  0000 C CNN
	1    13050 2600
	0    1    1    0   
$EndComp
Wire Wire Line
	12850 2600 12900 2600
Wire Wire Line
	13200 2200 13200 2600
Wire Wire Line
	12850 2800 14300 2800
$Comp
L R R19
U 1 1 5845A818
P 12000 2400
F 0 "R19" V 12080 2400 50  0000 C CNN
F 1 "10K" V 12000 2400 50  0000 C CNN
F 2 "Resistors_SMD:R_0402" V 11930 2400 50  0001 C CNN
F 3 "" H 12000 2400 50  0000 C CNN
	1    12000 2400
	-1   0    0    1   
$EndComp
Wire Wire Line
	12000 2200 12000 2250
Wire Wire Line
	12000 2550 12000 2600
Wire Wire Line
	11700 2600 12250 2600
Wire Wire Line
	12200 2800 12250 2800
Connection ~ 12000 2600
$Comp
L R R26
U 1 1 5845A836
P 15100 2600
F 0 "R26" V 15180 2600 50  0000 C CNN
F 1 "120" V 15100 2600 50  0000 C CNN
F 2 "Resistors_SMD:R_0402" V 15030 2600 50  0001 C CNN
F 3 "" H 15100 2600 50  0000 C CNN
	1    15100 2600
	0    1    1    0   
$EndComp
Wire Wire Line
	14900 2600 14950 2600
Wire Wire Line
	15250 2200 15250 2600
Wire Wire Line
	14900 2800 14950 2800
$Comp
L R R24
U 1 1 5845A84B
P 14050 2400
F 0 "R24" V 14130 2400 50  0000 C CNN
F 1 "10K" V 14050 2400 50  0000 C CNN
F 2 "Resistors_SMD:R_0402" V 13980 2400 50  0001 C CNN
F 3 "" H 14050 2400 50  0000 C CNN
	1    14050 2400
	-1   0    0    1   
$EndComp
Wire Wire Line
	14050 2200 14050 2250
Wire Wire Line
	14050 2550 14050 2600
Wire Wire Line
	13550 2600 14300 2600
Connection ~ 14050 2600
$Comp
L KTIR0711S U10
U 1 1 5845D647
P 12550 2700
F 0 "U10" H 12350 2900 50  0000 L CNN
F 1 "KTIR0711S" H 12550 2900 50  0000 L CNN
F 2 "warsztaty:KTIR0711S" H 12350 2500 50  0001 L CIN
F 3 "" H 12550 2700 50  0000 L CNN
	1    12550 2700
	-1   0    0    -1  
$EndComp
$Comp
L KTIR0711S U13
U 1 1 5845DC4C
P 14600 2700
F 0 "U13" H 14400 2900 50  0000 L CNN
F 1 "KTIR0711S" H 14600 2900 50  0000 L CNN
F 2 "warsztaty:KTIR0711S" H 14400 2500 50  0001 L CIN
F 3 "" H 14600 2700 50  0000 L CNN
	1    14600 2700
	-1   0    0    -1  
$EndComp
Wire Wire Line
	12000 2200 15250 2200
Wire Wire Line
	13350 2200 13350 1750
Connection ~ 13200 2200
Wire Wire Line
	11700 2600 11700 2000
Wire Wire Line
	11700 2000 13250 2000
Wire Wire Line
	13250 2000 13250 1750
Wire Wire Line
	12200 2800 12200 2900
Wire Wire Line
	12200 2900 12900 2900
Wire Wire Line
	12900 2900 12900 2800
Connection ~ 12900 2800
Connection ~ 13350 2200
Connection ~ 14050 2200
Wire Wire Line
	13550 2600 13550 1750
Wire Wire Line
	14950 2800 14950 2900
Connection ~ 13450 2800
Wire Wire Line
	13450 2800 13450 1750
Wire Wire Line
	14950 2900 14250 2900
Wire Wire Line
	14250 2900 14250 2800
Connection ~ 14250 2800
$Comp
L R R22
U 1 1 584616BB
P 13000 4400
F 0 "R22" V 13080 4400 50  0000 C CNN
F 1 "120" V 13000 4400 50  0000 C CNN
F 2 "Resistors_SMD:R_0402" V 12930 4400 50  0001 C CNN
F 3 "" H 13000 4400 50  0000 C CNN
	1    13000 4400
	0    1    1    0   
$EndComp
Wire Wire Line
	12800 4400 12850 4400
Wire Wire Line
	13150 4000 13150 4400
Wire Wire Line
	12800 4600 14250 4600
$Comp
L R R20
U 1 1 584616C4
P 11950 4200
F 0 "R20" V 12030 4200 50  0000 C CNN
F 1 "10K" V 11950 4200 50  0000 C CNN
F 2 "Resistors_SMD:R_0402" V 11880 4200 50  0001 C CNN
F 3 "" H 11950 4200 50  0000 C CNN
	1    11950 4200
	-1   0    0    1   
$EndComp
Wire Wire Line
	11950 4000 11950 4050
Wire Wire Line
	11950 4350 11950 4400
Wire Wire Line
	11650 4400 12200 4400
Wire Wire Line
	12150 4600 12200 4600
Connection ~ 11950 4400
$Comp
L R R25
U 1 1 584616CF
P 15050 4400
F 0 "R25" V 15130 4400 50  0000 C CNN
F 1 "120" V 15050 4400 50  0000 C CNN
F 2 "Resistors_SMD:R_0402" V 14980 4400 50  0001 C CNN
F 3 "" H 15050 4400 50  0000 C CNN
	1    15050 4400
	0    1    1    0   
$EndComp
Wire Wire Line
	14850 4400 14900 4400
Wire Wire Line
	15200 4000 15200 4400
Wire Wire Line
	14850 4600 14900 4600
$Comp
L R R23
U 1 1 584616D8
P 14000 4200
F 0 "R23" V 14080 4200 50  0000 C CNN
F 1 "10K" V 14000 4200 50  0000 C CNN
F 2 "Resistors_SMD:R_0402" V 13930 4200 50  0001 C CNN
F 3 "" H 14000 4200 50  0000 C CNN
	1    14000 4200
	-1   0    0    1   
$EndComp
Wire Wire Line
	14000 4000 14000 4050
Wire Wire Line
	14000 4350 14000 4400
Wire Wire Line
	13500 4400 14250 4400
Connection ~ 14000 4400
$Comp
L KTIR0711S U11
U 1 1 584616E2
P 12500 4500
F 0 "U11" H 12300 4700 50  0000 L CNN
F 1 "KTIR0711S" H 12500 4700 50  0000 L CNN
F 2 "warsztaty:KTIR0711S" H 12300 4300 50  0001 L CIN
F 3 "" H 12500 4500 50  0000 L CNN
	1    12500 4500
	-1   0    0    -1  
$EndComp
$Comp
L KTIR0711S U12
U 1 1 584616E8
P 14550 4500
F 0 "U12" H 14350 4700 50  0000 L CNN
F 1 "KTIR0711S" H 14550 4700 50  0000 L CNN
F 2 "warsztaty:KTIR0711S" H 14350 4300 50  0001 L CIN
F 3 "" H 14550 4500 50  0000 L CNN
	1    14550 4500
	-1   0    0    -1  
$EndComp
Wire Wire Line
	11950 4000 15200 4000
Wire Wire Line
	13300 4000 13300 3550
Connection ~ 13150 4000
Wire Wire Line
	11650 4400 11650 3800
Wire Wire Line
	11650 3800 13200 3800
Wire Wire Line
	13200 3800 13200 3550
Wire Wire Line
	12150 4600 12150 4700
Wire Wire Line
	12150 4700 12850 4700
Wire Wire Line
	12850 4700 12850 4600
Connection ~ 12850 4600
Connection ~ 13300 4000
Connection ~ 14000 4000
Wire Wire Line
	13500 4400 13500 3550
Wire Wire Line
	14900 4600 14900 4700
Connection ~ 13400 4600
Wire Wire Line
	13400 4600 13400 3550
Wire Wire Line
	14900 4700 14200 4700
Wire Wire Line
	14200 4700 14200 4600
Connection ~ 14200 4600
Connection ~ 5050 6300
Connection ~ 5050 6600
Connection ~ 7350 5450
Wire Wire Line
	7650 5750 7350 5750
Wire Wire Line
	7350 5750 7350 5800
$Comp
L CP C14
U 1 1 58460986
P 4750 6450
F 0 "C14" H 4775 6550 50  0000 L CNN
F 1 "10uF" H 4775 6350 50  0000 L CNN
F 2 "Capacitors_Tantalum_SMD:Tantalum_Case-A_EIA-3216-18_Reflow" H 4788 6300 50  0001 C CNN
F 3 "" H 4750 6450 50  0000 C CNN
	1    4750 6450
	1    0    0    -1  
$EndComp
$Comp
L CP C15
U 1 1 58460A78
P 7650 5600
F 0 "C15" H 7675 5700 50  0000 L CNN
F 1 "10uF" H 7675 5500 50  0000 L CNN
F 2 "Capacitors_Tantalum_SMD:Tantalum_Case-A_EIA-3216-18_Reflow" H 7688 5450 50  0001 C CNN
F 3 "" H 7650 5600 50  0000 C CNN
	1    7650 5600
	1    0    0    -1  
$EndComp
$Comp
L USB_OTG P5
U 1 1 584945FC
P 10100 6800
F 0 "P5" H 10425 6675 50  0000 C CNN
F 1 "zasilanie" H 10100 7000 50  0000 C CNN
F 2 "warsztaty:USB_Micro-B_10103594-0001LF" V 10050 6700 50  0001 C CNN
F 3 "" V 10050 6700 50  0000 C CNN
	1    10100 6800
	0    -1   1    0   
$EndComp
$Comp
L MCP73831/2 U14
U 1 1 58494C4C
P 11950 7050
F 0 "U14" H 12150 7650 60  0000 C CNN
F 1 "MCP73831/2" H 11950 6750 60  0000 C CNN
F 2 "TO_SOT_Packages_SMD:SOT-23-5" H 14200 6100 60  0001 C CNN
F 3 "" H 14200 6100 60  0000 C CNN
	1    11950 7050
	1    0    0    -1  
$EndComp
$Comp
L C_Small C16
U 1 1 58494F67
P 10800 6750
F 0 "C16" H 10810 6820 50  0000 L CNN
F 1 "10uF" H 10810 6670 50  0000 L CNN
F 2 "Capacitors_SMD:C_0805" H 10800 6750 50  0001 C CNN
F 3 "" H 10800 6750 50  0000 C CNN
	1    10800 6750
	1    0    0    -1  
$EndComp
$Comp
L Led_Small D4
U 1 1 58495052
P 11250 6750
F 0 "D4" H 11200 6875 50  0000 L CNN
F 1 "Led_Small" H 11075 6650 50  0000 L CNN
F 2 "LEDs:LED_0603" V 11250 6750 50  0001 C CNN
F 3 "" V 11250 6750 50  0000 C CNN
	1    11250 6750
	0    -1   -1   0   
$EndComp
$Comp
L R_Small R27
U 1 1 58495113
P 11250 7000
F 0 "R27" H 11280 7020 50  0000 L CNN
F 1 "470R" H 11280 6960 50  0000 L CNN
F 2 "Capacitors_SMD:C_0603" H 11250 7000 50  0001 C CNN
F 3 "" H 11250 7000 50  0000 C CNN
	1    11250 7000
	1    0    0    -1  
$EndComp
$Comp
L R_Small R28
U 1 1 5849522B
P 12700 7000
F 0 "R28" H 12730 7020 50  0000 L CNN
F 1 "10k" H 12730 6960 50  0000 L CNN
F 2 "Capacitors_SMD:C_0805" H 12700 7000 50  0001 C CNN
F 3 "" H 12700 7000 50  0000 C CNN
	1    12700 7000
	1    0    0    -1  
$EndComp
$Comp
L C_Small C17
U 1 1 58495349
P 13050 6700
F 0 "C17" H 13060 6770 50  0000 L CNN
F 1 "10uF" H 13060 6620 50  0000 L CNN
F 2 "Capacitors_SMD:C_0805" H 13050 6700 50  0001 C CNN
F 3 "" H 13050 6700 50  0000 C CNN
	1    13050 6700
	1    0    0    -1  
$EndComp
$Comp
L CONN_01X02 P6
U 1 1 58495728
P 13900 6800
F 0 "P6" H 13900 6950 50  0000 C CNN
F 1 "LiPo" V 14000 6800 50  0000 C CNN
F 2 "Pin_Headers:Pin_Header_Straight_1x02" H 13900 6800 50  0001 C CNN
F 3 "" H 13900 6800 50  0000 C CNN
	1    13900 6800
	1    0    0    -1  
$EndComp
Wire Wire Line
	10400 6600 11400 6600
Wire Wire Line
	11250 6600 11250 6650
Connection ~ 11250 6600
Wire Wire Line
	10800 6600 10800 6650
Connection ~ 10800 6600
Wire Wire Line
	11250 6850 11250 6900
Wire Wire Line
	11250 7100 11250 7150
Wire Wire Line
	11250 7150 11400 7150
Wire Wire Line
	10800 6850 10800 7450
Wire Wire Line
	10800 7000 10400 7000
Wire Wire Line
	12400 6600 13700 6600
Wire Wire Line
	13700 6600 13700 6750
Connection ~ 13050 6600
Wire Wire Line
	13700 6850 13700 7150
Wire Wire Line
	13700 7150 12400 7150
Wire Wire Line
	12700 7100 12700 7450
Connection ~ 12700 7150
Wire Wire Line
	12400 6900 12700 6900
Wire Wire Line
	13050 6800 13050 7150
Connection ~ 13050 7150
Wire Wire Line
	12700 7450 10800 7450
Connection ~ 10800 7000
Wire Wire Line
	10000 7200 10800 7200
Connection ~ 10800 7200
$EndSCHEMATC
